<sdf version="1.7">
  <world name="world">
    <scene>
      <ambient>0.8 0.8 0.8 1.0</ambient>
      <background>0 0 0</background>
      <grid>false</grid>
    </scene>
    <include>
      <uri>model://sun</uri>
    </include>
    <gui>
      <camera name="gui_camera">
        <pose>5.140712577178463 -25.63887590916398 10 0 0.6 1.57</pose>
      </camera>
      <plugin name="toggle_charging" filename="libtoggle_charging.so" />
      <plugin name="toggle_floors" filename="libtoggle_floors.so">
        <floor name="L1" model_name="my_environment_L1" />
      </plugin>
    </gui>
    <include>
      <name>my_environment_L1</name>
      <uri>model://my_environment_L1</uri>
      <pose>0 0 0.0 0 0 0</pose>
    </include>
    <rmf_charger_waypoints name="charger_waypoints">
      <rmf_vertex name="charging_station" x="2.076805580048024" y="-2.58031905521556" level="L1" />
    </rmf_charger_waypoints>
  </world>
</sdf>
