# The Great Editor v0.0.1
mtllib floor_2.mtl
o floor_2
v 0.6241257346326049 -0.47769350442782554 0
v 0.6241257346326049 -0.47769350442782554 -0.1
v 10.72194158246155 -0.43421716901454527 0
v 10.72194158246155 -0.43421716901454527 -0.1
v 10.77628700172815 -8.108118080529465 0
v 10.77628700172815 -8.108118080529465 -0.1
v 0.6023875669259647 -8.140725332089424 0
v 0.6023875669259647 -8.140725332089424 -0.1
v 0.6893402377525253 -0.5755152591077062 0
v 0.6893402377525253 -0.5755152591077062 -0.1
vt 0.6241257346326049 -0.47769350442782554 0
vt 10.72194158246155 -0.43421716901454527 0
vt 10.77628700172815 -8.108118080529465 0
vt 0.6023875669259647 -8.140725332089424 0
vt 0.6893402377525253 -0.5755152591077062 0
vn 0 0 1
vn 0 0 -1
usemtl floor_2
s off
f 9/5/1 3/2/1 1/1/1
f 2/1/2 4/2/2 10/5/2
f 9/5/1 5/3/1 3/2/1
f 4/2/2 6/3/2 10/5/2
f 5/3/1 9/5/1 7/4/1
f 8/4/2 10/5/2 6/3/2
